comment_count,review,app_name
4893,辣鸡游戏,For Honor
1432,"Overhyped, poorly optimized, indie game made by 15 people, being sold for AAA price. It's shallow, empty, repetitive and boring. Their 18 quintillion planets are just a bunch of re-color of the same assets, randomly generated with different combinations. Their representation of the universe is inaccurate, every single planet and moon i've seen is inhabited with life and/or vegetation, there are no gas giants, no ring systems. Also, black holes are literally portals. So astronomy enthusiasts, beware, if you thought this would be a space sim you're wrong, it is vaguely based on the real universe. 

About the gameplay, you scan stuff, you mine materials, find some outposts, fill out your ship and your gear, run out of inventory space, go to the nearest space station, sell your sh*t, and then you move on the the next planet. That's basically what you do until you reach the center of the galaxy for a NG+. About the combat, the ground and space shooting are mediocre at best. All planetary outposts and space stations look the same. There is a very limited variety of NPCs, there is 3 different intelligent species you can interact with, the same 3 guys with different clothes basically, all NPC interactions are essentially the same. All ships look like toys. And all alien life forms look like they were made by a child using Spore creature creator. The excitement lasts for about the first few planets, then the repetition sinks in, and you're left with a feeling of huge disappointment.

I have completed the Atlas Path and completed all achievements, i'm on my way to the center of the galaxy, but i'm not sure if i will continue, because i'm already bored of the game. UPDATE: I have now reached the center of the galaxy after 14 straight hours of warping only stopping on planets to recharge the warp drive. I ended up in the Hilbert Dimension, the second galaxy. Uninstalled the game. DO NOT BUY, YOU HAVE BEEN WARNED!

Also, what i really want to talk about is how they straight out lied about it being multiplayer. And the game simply does not look like it did on the trailers.

https://www.youtube.com/watch?v=A8P2CZg3sJQ

The problem is not the fact that you can't see or interact and play together with other people, it's the fact that they said it was possible and it isn't. I'm perfectly fine with the game not having multiplayer, i play single-player games and i enjoy them. What i have a problem with, is they straight out lied about it being multiplayer, that is unacceptable, a game developer cannot do that and get away with it. 

I am sick of these vague as f*ck tweets from Sean Murray implying something but not stating it clearly. It's just a series of shady moves they make over and over again, careful choice of words leaving multiple interpretations, misleading disinformation. Not even the press knows what to make of it. 

They actually covered with a sticker the multiplayer icon from the PEGI score on the Limited Edition box. Sauce: http://www.pcgamer.com/no-mans-sky-limited-edition-box-has-online-play-icon-hidden-under-sticker/ After years of clearly stating that it was multiplayer, ONE DAY BEFORE the PS4 launch, they tweet that the game is not ''a multiplayer experience'' then tweet that ''The chances of two players ever crossing paths in a universe this large is pretty much zero'' contradicting the previous tweet. 

Sean Murray specifically said on interviews you could see and interact with other players, and play together. Then on the first day it has been confirmed by two streamers that tried to meet up, they were in the same system, same planet, same spot, and couldn't see each other, for one of them it was day time, for the other one it was night time. And the kicker? Hello Games are celebrating that ''two players encountered each other'', and then say that they were having server problems, implying that's why the players couldn't meet. How can they be so deceitful?

Do not buy this game. This should be in Early Access and it is worth $20 max. I honestly don't understand the mentality of ""Give them some time. Eventually be good."" Sorry but if the game's release price is $60, it should be worth $60 at release. This is not a beta or a Early Access, although it looks and plays like one, this is a full release.

If you're looking for a good single-player exploration sandbox game, get Subnautica. A indie game with a indie game price. 92% overall positive reviews. Has actual survival mechanics, crafting mechanics, building mechanics. Better graphics and VR support.

Update: Jimquisition quoted me! http://www.thejimquisition.com/metabombed-no-mans-sky-is-worthless-in-every-way/",No Man's Sky
1235,蓝洞韩国杂总，国家就是一帮垃圾民族组成的狗杂种，这个垃圾民族就该死绝死光，杀绝种了，杂种民族死尽了最好,PLAYERUNKNOWN'S BATTLEGROUNDS
