app_name,votes_helpful,review
Bloons TD 6,4398046511106,"I don't know what to say, but just to go pop some bloons. I used to play Bloons TD back when it wasn't even close to 6 at shady websites, but this is the same old Bloons. You place monkey towers, and you defend against bloons. That's the joy of the game. Don't ask me why I still come back and play it.

I haven't played td 4 or 5, but noticeably different from the older ones I played is more upgrades and leveling. Instant monkeys (kind of like lootbox monkeys towers that you can instantly place) are also new to me. However, I do have to gripe on some things with BTD6 which is... the fact that you even have the option to spend money on the game after you buy it. Why should you make Bloons have in game micro-transactions (even if you don't actually need to partake in them). This game used to be a completely free online game - why add in monetization... Looking past those flaws, Bloons TD is still an oddly fun and addicting game.

Rating: 8.4/10
Recommend Price: $4.99 (I honestly wouldn't pay full price for this even if it is fun)"
Broforce,4398046511104,"Jogo muito bom. Recomendo ele, vale cada centavo, além é claro de ter um preço bem interessante."
Stardew Valley,29608,"[b]**NOTE: Updated as of 5/12/18**[/b]


[h1]INTRODUCTION[/h1]

Stardew Valley.

I've heard a lot of things about this game. A lot of extremely [i]positive[/i] things.

And I was doubtful. Was Stardew Valley [i]really[/i] that good? I was afraid that people were just giving it attention because they didn't actually know what a good game was. And as insulting as it may sound, in my defense, uhhm.... 

Before buying the game I hadn't really seen what it looked like, or knew what it was about. I just knew that it was published by the same company, Chucklefish, that had developed Starbound. I had loved Starbound.. So I was playing completely spoiler free. Haven't watched any videos, no tips & tricks, just the information of a billion recommended reviews stuffed into my head.

So I bought Stardew Valley, and had pretty high expectations. If a game received THAT much popularity, it should be seriously good, right?


[h1]WHAT STARDEW VALLEY IS[/h1]

Plop. Into the world of Stardew Valley. 

You completely start from the bottom, trailing after a tragedy and responsibility that's struck. A farm, barely any money, and the mystery of a town left in your hands. Whew. That's really a lot when you think about it.


 Boy, did I NOT know what I was getting myself into.


At first, I was mesmorized. Or maybe lost is a better word. The beginning's all new and immersive, and the middle... kind of leaves you stuck. But, this is because I was impatient with the game. I went in wanting to finish it asap. However, I realized this game is NOT simply for you to buy and finish. It's something else... entirely.

The thing with Stardew Valley, It's all about exploration and management. Discovering and figuring out secrets and a beautiful story was amazing. Creative mechanics and powerful creativity had combined to produce a fabulous well-formed game that leaves a sweet taste in your mouth, and I'm going to tell you right now... it's totally addicting. 

I bought the game a few days ago, and literally have played it all day since. I've NEVER done that with a game before. I found myself as a kid in a candy shop, gaping at all the different flavors, and being able to savor them all. And now, in Year 3 of the game.. I still have a lot more to discover. 


[h1]PLAYING[/h1]

Compared to others, I've only played around 130 hours of the game thus far. Buy Stardew Valley. You really won't regret it. This game is beautiful. The music is whimsically lifting, and the soundtrack is wonderful. It's a work of art. You will find yourself falling in love with the characters, and the daily routine of being a farmer who restores the life around people, and who changes everyone for the better. It's so relaxing, so addicting, and so much fun. I have played games for years, played games with far more hours than I have with Stardew Valley- and yet, I always turn to Stardew Valley first. Why? It's amazing. It offers something to everyone.

The game rewards for the hard-working. Stardew Valley is a game where you really have to manage things, yet, it allows you to explore the whole art of it. Work hard as you play the game, and there are sweet rewards. And I'm talking about rewards sweeter than all the candy in that candy shop.

Here's the thing: you can take two routes with Stardew Valley. You can either take the money route and become rich and miss half the game, or you can immerse yourself in exploring the town and what the game has to offer, but with also missing the point that Stardew is a management farming game.

Or, you can successfully find the balance between both. But how?

Stardew Valley allows you to store multiple accounts, which is fantastic. I recommend exploring with your first account, and learning the ropes. You seriously won't know anything yet, and will be like ""OMFG"" when you figure out there's a way that makes things one hundred times easier. After that, create a second account, and start figuring out farm management and what the game has to offer. This is a game in which you learn from your mistakes.

And now... I'm left in a spot where I can successfully thrive, and only continue to grow.


[h1]THE PROS[/h1]

- Enchanting music that sings as you play

- A simple yet fun art design that you can't help but fall in love with

- Characters whom capture your heart

- A shambled town that begins to thrive

- Hidden secrets that you can't help but want to keep discovering

- Amazing challenges that leave you wanting more

- Brilliant originality, which is incredibly difficult to find

- A storyline that changes your perspective beautifully

- Lots of fun, and I mean [i]lots[/i].

- Mods created by the community to make your game more fun and immersive- however, I play without mods.

- IT FINALLY HAS MULTIPLAYER!


[h1]THE CONS[/h1]

- As I said, the game rewards you for hard work. But only for hard work. It can be a grueling process, but it is extremely profitable. Those who don't like putting effort into a game won't enjoy Stardew Valley as much as other games.

- Time. Stardew Valley takes a lot of time to play through. It's a game you thoroughly have to enjoy and adventure out on.

- Repetitive. The game can be grueling. To reach certain goals you have to go through processes that you will SERIOUSLY hate. But, in the end, it's definitely worth the labor.


[h1]PLACES TO IMPROVE[/h1]


- I wish there would be more characters. Once you go through the storyline with everyone, there's not much lore left.

- More secrets and new areas, of course! 


[h1]WHY IT'S JUST STELLAR[/h1] 

Stardew Valley offers a lot of things, and has changed the lives of many people. Perhaps in peace, wonder, open-mindedness, the game gives a lot. But I have one thing that's been bothering me for a long time... How in the damn world did one single person spit out a freaking awesome game?

Even though it's a farming game, which is commonly found everywhere, it's original with its own spins. It's extremely difficult to find a game that has such a captivating message that's been developed so well. Stardew Valley is a lot of fun and awe, and it really draws a blank in your mind.

Buy Stardew Valley. At first, it might seem mediocre... but keep playing. Trust me, the candies are still sweet. And they really only get sweeter."
Rust,28211,"I love this game, I built a house around a guys house and made him my prisoner, I fed him cans of tuna and cooked chicken when it was available, and some times I would drop in spare logs of wood(when they were available). The best part. he talks to me, keeps telling me his clans going to raid my structure and save him.. I simply respond with .” It puts the lotion on its skin, or it gets the hose again” and by hose I mean I dump charcoal on him.
-Great game hope the servers come up soon, I think my pet may need to eat.

-Maniken"
NieR:Automata™,26149,"比全球首发版还贵…当中国人傻钱多么？

------------------------------------------------------------
评价系统的蓝标是“推荐”，红标是“不推荐”。不管怎么看都应该是购买者给出的购买建议。我认为太贵不推荐购买，有什么问题吗？评论里上来就不友善的 我直接删了"
PLAYERUNKNOWN'S BATTLEGROUNDS,19927,"这是一个非常神奇的世界，在里面会遇到各路神仙大显神通，堪比封神时期，他们均来自不同的修真门派：

天眼宗：独门秘术“天神之眼”，神识覆盖整座岛屿，活人死人，枪支弹药尽收眼底，无视任何掩体及障碍物。

死射门：独门秘技“死亡锁定”，遇人秒锁，开抢即爆，指哪打哪，无论是头还是心脏，无论目标是在高速移动，还是在千里之外，阅后即秒，冷酷无情。

神拳寺：独门秘技“无影神拳”，无论目标身在何方，或身在何种掩体保护中，击拳即可命中，敌人只能在绝望中哀嚎，在哀嚎中被拳打成盒，人无处可寻，己无处可逃。

风行阁：独门身法“凌波微步”，百米一秒八，谜踪身法秀遍全场，子弹射速再快，永远无法触及他们的身影。

瑜伽派：独门身法“橡胶之体”，可让四肢躯干无限伸缩，杀人角度堪称刁钻至极，若幸运，也许在你倒地的一瞬间，你可以看到他们诡异且漫长的双手拿着枪对着你。

法宝门：独门秘术“地爆天星”，以咒术催动手雷变大，直至顶破苍穹，众人目睹后无一不瞠目结舌，随之引爆，其威力大过原子弹数倍不止，顷刻间全岛生灵灰飞烟灭。

黑洞门：独门秘术“万象天引”，以秘术将全岛所有人吸附到自己面前（无视距离），并将其定住屠杀之，堪称惨绝人寰、灭绝人性。

由于修仙界向来以造福修真者为道，且所有的修真者都刻守此道，顾各大门派之间从未有过门派之别，所以各路修真人士都汇集各家所长，熟练运用各门各派之秘术、秘技及身法，以至融会贯通。其中以天眼宗和死射门为首，入门门槛最低，秘术也最容易精通，顾人数最多，因此大部分修真者至少都会“天神之眼”和“死亡锁定”，而少数天赋异禀的修真者除了这两项秘术以外，还会一些其他门派的秘技。更有不出世大罗神仙所有秘术、秘技及身法全部精通，其通天彻地之能，堪称比创世之神“蓝洞”。

所以再此奉劝各位妄想踏足修仙界的麻瓜和无灵根者，趁早悬崖勒马，切勿误入歧途。"
PAYDAY 2,19707,"Well what can i say. I got 1200h+ Hours played. Yes i bought the completely Overkill Pack the DLC's and supported the game. But after microtransactions and more and more DLC's i had to give it a bad review. They were promising free content and instead we got paid DLC's and microtransactions. So Overkill will most likly go on with this trend of money making.

Don't get me wrong its one of my favorite games. But if you are new do not buy it unless you are willing to spend more money on DLC's that will come out over time. Because even with a -75% sale on everything the game with everything costs ~33€. And after some time you maybe dont want to wait for a sale to get the newest DLC.

So what i want to tell you is that you will invest more money into the game. The content is good overall but you will have to pay more than you think. 

Also playing with ""publics"" (people you don't know) can be pretty annoying. It's ok for a while but sometimes you just want a break from them. 

So if you want to play it be ready to spend some money on DLC and maybe microtransactions (for Weapon Skins which are cosmetic) and get yourself into a group to play Payday with."
